{
  "animator": [
    {
      "input": {
        "item": {
          //Item template goes here
          //The item ID
          "id": "arche:phistone"
        },
        //Amount of fuel
        "fuel": 64,
        //Amount of life crystal
        "life": 50
      },
      "output": {
        //Item template goes here
        "id": "projecte:item.pe_philosophers_stone"
      }
    },
    {
      "input": {
        "item": {
          //Item template goes here
          //The item ID
          "id": "projecte:alchemical_chest"
        },
        //Amount of fuel
        "fuel": 64,
        //Amount of life crystal
        "life": 50
      },
      "output": {
        //Item template goes here
        "id": "projecte:condenser_mk1"
      }
    },
    {
      "input": {
        "item": {
          //Item template goes here
          //The item ID
          "id": "minecraft:diamond_block"
        },
        //Amount of fuel
        "fuel": 64,
        //Amount of life crystal
        "life": 50
      },
      "output": {
        //Item template goes here
        "id": "projecte:collector_mk1"
      }
    }

  ]
}